…
``` r
q3 <- health_df %>% 
  filter(reporting_year == "2021" & !(measure_name %in% c("Average Age", "Medical Member Count", "Pharmacy Member Count", "Medi-Cal Enrollment Rate", "Commercial Enrollment Rate", "Medicare Enrollment Rate"))) %>% 
  group_by(measure_name) %>% 
  summarise(total_count = as.integer(sum(measure_numerator, na.rm = TRUE)),
            total_whole = as.integer(sum(measure_denominator, na.rm = TRUE)),
            percentage = round(total_count/total_whole, digits = 4) * 100,
            total_count = comma(total_count),
            total_whole = comma(total_whole))%>% 
  arrange(desc(percentage)) %>% 
  ungroup()
```

    ## # A tibble: 29 × 4
    ##    measure_name                               total_count total_whole percentage
    ##    <chr>                                      <chr>       <chr>            <dbl>
    ##  1 High Blood Pressure (Hypertension) Preval… 4,475,565   31,947,574       14.0 
    ##  2 High Cholesterol (Hyperlipidemia) Prevale… 4,089,177   31,947,574       12.8 
    ##  3 Anxiety Prevalence                         2,572,781   31,947,574        8.05
    ##  4 Depression, Bipolar, or Other Depressive … 2,537,011   31,947,574        7.94
    ##  5 Diabetes Prevalence                        2,431,897   31,947,574        7.61
    ##  6 Obesity Prevalence                         2,366,404   31,947,574        7.41
    ##  7 Rheumatoid Arthritis/Osteoarthritis Preva… 1,890,674   31,947,574        5.92
    ##  8 Asthma Prevalence                          1,359,819   31,947,574        4.26
    ##  9 Anemia Prevalence                          1,345,333   31,947,574        4.21
    ## 10 Chronic Kidney Disease Prevalence          1,040,959   31,947,574        3.26
    ## # ℹ 19 more rows
…
q4 <- health_df %>% 
  filter(reporting_year == "2021" & measure_name == "High Blood Pressure (Hypertension) Prevalence") %>% 
  group_by(county_name, measure_name, payer_type) %>% 
  summarise(total_count = as.integer(sum(measure_numerator, na.rm = TRUE)),
            total_whole = as.integer(sum(measure_denominator, na.rm = TRUE)),
            percentage = round(total_count/total_whole, digits = 4) * 100) %>% 
  group_by(payer_type) %>% 
  mutate(stand_percent = scale(percentage),
         stand_percent = round(stand_percent, digits = 2)) %>% 
  arrange(desc(stand_percent)) %>% 
  ungroup() %>% 
  select(-measure_name)
```

    ## # A tibble: 174 × 6
    ##    county_name   payer_type total_count total_whole percentage stand_percent[,1]
    ##    <chr>         <chr>            <int>       <int>      <dbl>             <dbl>
    ##  1 San Francisco Medi-Cal         39915      217909       18.3              2.34
    ##  2 Modoc         Medi-Cal           617        3430       18.0              2.21
    ##  3 Imperial      Medi-Cal         17416       97907       17.8              2.13
    ##  4 Del Norte     Commercial        1330        7096       18.7              1.94
    ##  5 Tuolumne      Medi-Cal          2483       14738       16.8              1.76
    ##  6 Tuolumne      Commercial        2527       14847       17.0              1.42
    ##  7 Lake          Medi-Cal          5608       35298       15.9              1.38
    ##  8 Lassen        Commercial        1730       10338       16.7              1.33
    ##  9 Calaveras     Commercial        2213       13292       16.7              1.3 
    ## 10 Modoc         Commercial         236        1424       16.6              1.28
    ## # ℹ 164 more rows
…
## Question 5: What is the overall weighted average percentage of High Blood Pressure by population?

``` r
q5 <- q4 %>% 
  group_by(county_name) %>% 
  summarise(weighted_average = sum((percentage * total_whole), na.rm = TRUE)/sum(total_whole, na.rm = TRUE),
            weighted_average = round(weighted_average, digits = 2)) %>% 
  arrange(desc(weighted_average))
```

    ## # A tibble: 58 × 2
    ##    county_name weighted_average
    ##    <chr>                  <dbl>
    ##  1 Amador                  19.3
    ##  2 Tuolumne                18.5
    ##  3 Imperial                17.4
    ##  4 Modoc                   17.4
    ##  5 Calaveras               17.3
    ##  6 Lake                    17.3
    ##  7 Del Norte               17.0
    ##  8 Mariposa                16.6
    ##  9 Kings                   16.4
    ## 10 Lassen                  16.4
    ## # ℹ 48 more rows
…
